id,SKU,"WPML Language Code",Title,"Short Description",Content,"Technical description","Border reference","Border description",Weight,Weight,Length,Width,Height,"Country of production","Product Type","Parent Product ID","Product Color","Product Manufacturing Place","Product Size","Product Attributes",Price,"Regular Price","Sale Price",_pricing_rules,"Stock Status",Stock,"External Product URL","Total Sales","Attribute Name (pa_color)","Attribute Value (pa_color)","Attribute In Variations (pa_color)","Attribute Is Visible (pa_color)","Attribute Is Taxonomy (pa_color)","Attribute Name (pa_manufacturing_place)","Attribute Value (pa_manufacturing_place)","Attribute In Variations (pa_manufacturing_place)","Attribute Is Visible (pa_manufacturing_place)","Attribute Is Taxonomy (pa_manufacturing_place)","Attribute Name (pa_size)","Attribute Value (pa_size)","Attribute In Variations (pa_size)","Attribute Is Visible (pa_size)","Attribute Is Taxonomy (pa_size)","Shipping Class","Image URL","Image Featured","Product categories",Colisage,Supplier,Up-Sells,"Product Image Gallery"
6,GPA01,en,"Foldable backpack","Sed ut perspiciatis unde omnis iste natus error sit voluptatem accusantium doloremque laudantium, totam rem aperiam, eaque ipsa quae ab illo inventore veritatis et quasi architecto beatae vitae dicta sunt explicabo.","Lorem ipsum dolor sit amet, consectetur adipiscing elit, sed do eiusmod tempor incididunt ut labore et dolore magna aliqua. Ut enim ad minim veniam, quis nostrud exercitation ullamco laboris nisi ut aliquip ex ea commodo consequat. Duis aute irure dolor in reprehenderit in voluptate velit esse cillum dolore eu fugiat nulla pariatur. Excepteur sint occaecat cupidatat non proident, sunt in culpa qui officia deserunt mollit anim id est laborum.","Material: polyester 190T;
Whooden handle;
Fiberglass ribs; Dim: 23"" x 8 panels;
Auto open",66019990,"Parapluies, ombrelles et parasols, y.c. les parapluies-cannes (à l'excl. des par~~FRA","0,38",field_5c59851abcea5,85,30,26,China,simple,0,,,,"a:2:{s:5:""color"";a:6:{s:4:""name"";s:5:""Color"";s:5:""value"";s:18:""Black | Red | Blue"";s:8:""position"";i:0;s:10:""is_visible"";i:1;s:12:""is_variation"";i:0;s:11:""is_taxonomy"";i:0;}s:4:""size"";a:6:{s:4:""name"";s:4:""Size"";s:5:""value"";s:22:""Small | Medium | Large"";s:8:""position"";i:1;s:10:""is_visible"";i:1;s:12:""is_variation"";i:0;s:11:""is_taxonomy"";i:0;}}",1,1,,"a:1:{s:17:""set_5c59889fc63be"";a:8:{s:15:""conditions_type"";s:3:""all"";s:10:""conditions"";a:1:{i:1;a:2:{s:4:""type"";s:8:""apply_to"";s:4:""args"";a:1:{s:10:""applies_to"";s:8:""everyone"";}}}s:9:""collector"";a:1:{s:4:""type"";s:7:""product"";}s:4:""mode"";s:10:""continuous"";s:9:""date_from"";s:0:"""";s:7:""date_to"";s:0:"""";s:5:""rules"";a:4:{i:1;a:4:{s:4:""from"";s:4:""1000"";s:2:""to"";s:4:""2999"";s:4:""type"";s:11:""fixed_price"";s:6:""amount"";s:4:""4.17"";}i:4;a:4:{s:4:""from"";s:1:""0"";s:2:""to"";s:3:""999"";s:4:""type"";s:11:""fixed_price"";s:6:""amount"";s:1:""2"";}i:2;a:4:{s:4:""from"";s:4:""3000"";s:2:""to"";s:4:""4999"";s:4:""type"";s:11:""fixed_price"";s:6:""amount"";s:3:""3.2"";}i:3;a:4:{s:4:""from"";s:4:""5000"";s:2:""to"";s:4:""9999"";s:4:""type"";s:11:""fixed_price"";s:6:""amount"";s:4:""2.95"";}}s:10:""blockrules"";a:1:{i:1;a:5:{s:4:""from"";s:0:"""";s:6:""adjust"";s:0:"""";s:4:""type"";s:16:""fixed_adjustment"";s:6:""amount"";s:0:"""";s:9:""repeating"";s:2:""no"";}}}}",instock,,,0,Color,,no,no,no,"Manufacturing place",,no,no,no,Size,,no,no,no,,https://dev.allo-sourcing.com/wp-content/uploads/2019/02/bag.jpg|https://dev.allo-sourcing.com/wp-content/uploads/2019/02/GBA43.jpg|https://dev.allo-sourcing.com/wp-content/uploads/2019/02/GBA45.jpg|https://dev.allo-sourcing.com/wp-content/uploads/2019/02/GBA46.jpg|https://dev.allo-sourcing.com/wp-content/uploads/2019/02/GBA47.jpg|https://dev.allo-sourcing.com/wp-content/uploads/2019/02/GBA49_2.png,https://dev.allo-sourcing.com/wp-content/uploads/2019/02/bag.jpg,Bags>Bags>Drawstrings,25,"ZHEJIANG HAIZHOU UMBRELLA CO.,LTD",,"7,8,9,10,11,12"
28,GPA01,fr,"Foldable backpack FR","Sed ut perspiciatis unde omnis iste natus error sit voluptatem accusantium doloremque laudantium, totam rem aperiam, eaque ipsa quae ab illo inventore veritatis et quasi architecto beatae vitae dicta sunt explicabo. FR","Lorem ipsum dolor sit amet, consectetur adipiscing elit, sed do eiusmod tempor incididunt ut labore et dolore magna aliqua. Ut enim ad minim veniam, quis nostrud exercitation ullamco laboris nisi ut aliquip ex ea commodo consequat. Duis aute irure dolor in reprehenderit in voluptate velit esse cillum dolore eu fugiat nulla pariatur. Excepteur sint occaecat cupidatat non proident, sunt in culpa qui officia deserunt mollit anim id est laborum. FR","Matière 100% polyester 145gsm;
Tailles XS-3XL",66019990,"Parapluies, ombrelles et parasols, y.c. les parapluies-cannes (à l'excl. des par~~FRA","0,38",field_5c59851abcea5,85,30,26,China,simple,0,,,,,,,,"a:1:{s:17:""set_5c598987708f1"";a:8:{s:15:""conditions_type"";s:3:""all"";s:10:""conditions"";a:1:{i:1;a:2:{s:4:""type"";s:8:""apply_to"";s:4:""args"";a:1:{s:10:""applies_to"";s:8:""everyone"";}}}s:9:""collector"";a:1:{s:4:""type"";s:7:""product"";}s:4:""mode"";s:10:""continuous"";s:9:""date_from"";s:0:"""";s:7:""date_to"";s:0:"""";s:5:""rules"";a:3:{i:1;a:4:{s:4:""from"";s:4:""1000"";s:2:""to"";s:4:""2999"";s:4:""type"";s:11:""fixed_price"";s:6:""amount"";s:4:""4,17"";}i:3;a:4:{s:4:""from"";s:4:""3000"";s:2:""to"";s:4:""9999"";s:4:""type"";s:11:""fixed_price"";s:6:""amount"";s:3:""3,2"";}i:2;a:4:{s:4:""from"";s:4:""5000"";s:2:""to"";s:4:""9999"";s:4:""type"";s:11:""fixed_price"";s:6:""amount"";s:4:""2,95"";}}s:10:""blockrules"";a:1:{i:1;a:5:{s:4:""from"";s:0:"""";s:6:""adjust"";s:0:"""";s:4:""type"";s:16:""fixed_adjustment"";s:6:""amount"";s:0:"""";s:9:""repeating"";s:2:""no"";}}}}",instock,,,0,Color,,no,no,no,"Manufacturing place",,no,no,no,Size,,no,no,no,,https://dev.allo-sourcing.com/wp-content/uploads/2019/02/bag.jpg|https://dev.allo-sourcing.com/wp-content/uploads/2019/02/bag.jpg|https://dev.allo-sourcing.com/wp-content/uploads/2019/02/GBA43.jpg|https://dev.allo-sourcing.com/wp-content/uploads/2019/02/GBA45.jpg|https://dev.allo-sourcing.com/wp-content/uploads/2019/02/GBA46.jpg|https://dev.allo-sourcing.com/wp-content/uploads/2019/02/GBA47.jpg|https://dev.allo-sourcing.com/wp-content/uploads/2019/02/GBA49_2.png|https://dev.allo-sourcing.com/wp-content/uploads/2019/02/GBA43.jpg|https://dev.allo-sourcing.com/wp-content/uploads/2019/02/GBA45.jpg|https://dev.allo-sourcing.com/wp-content/uploads/2019/02/GBA46.jpg|https://dev.allo-sourcing.com/wp-content/uploads/2019/02/GBA47.jpg|https://dev.allo-sourcing.com/wp-content/uploads/2019/02/GBA49_2.png,https://dev.allo-sourcing.com/wp-content/uploads/2019/02/bag.jpg,Bags>Bags>Drawstrings,25,"ZHEJIANG HAIZHOU UMBRELLA CO.,LTD",,"7,8,9,10,11,12"
31,,en,test,,asd,,,,,field_5c59851abcea5,,,,,simple,0,,,,,,,,"a:1:{s:17:""set_5c5989c1054a3"";a:8:{s:15:""conditions_type"";s:3:""all"";s:10:""conditions"";a:1:{i:1;a:2:{s:4:""type"";s:8:""apply_to"";s:4:""args"";a:1:{s:10:""applies_to"";s:8:""everyone"";}}}s:9:""collector"";a:1:{s:4:""type"";s:7:""product"";}s:4:""mode"";s:10:""continuous"";s:9:""date_from"";s:0:"""";s:7:""date_to"";s:0:"""";s:5:""rules"";a:1:{i:1;a:4:{s:4:""from"";s:4:""1000"";s:2:""to"";s:0:"""";s:4:""type"";s:11:""fixed_price"";s:6:""amount"";s:2:""10"";}}s:10:""blockrules"";a:1:{i:1;a:5:{s:4:""from"";s:0:"""";s:6:""adjust"";s:0:"""";s:4:""type"";s:16:""fixed_adjustment"";s:6:""amount"";s:0:"""";s:9:""repeating"";s:2:""no"";}}}}",instock,,,0,Color,,no,no,no,"Manufacturing place",,no,no,no,Size,,no,no,no,,,,"Bez kategorii",,,,
118,GPA01-1,en,"Foldable backpack (Copy)","Sed ut perspiciatis unde omnis iste natus error sit voluptatem accusantium doloremque laudantium, totam rem aperiam, eaque ipsa quae ab illo inventore veritatis et quasi architecto beatae vitae dicta sunt explicabo.","Lorem ipsum dolor sit amet, consectetur adipiscing elit, sed do eiusmod tempor incididunt ut labore et dolore magna aliqua. Ut enim ad minim veniam, quis nostrud exercitation ullamco laboris nisi ut aliquip ex ea commodo consequat. Duis aute irure dolor in reprehenderit in voluptate velit esse cillum dolore eu fugiat nulla pariatur. Excepteur sint occaecat cupidatat non proident, sunt in culpa qui officia deserunt mollit anim id est laborum.","Material: polyester 190T;
Whooden handle;
Fiberglass ribs; Dim: 23"" x 8 panels;
Auto open",66019990,"Parapluies, ombrelles et parasols, y.c. les parapluies-cannes (à l'excl. des par~~FRA","0,38",field_5c59851abcea5,85,30,26,China,variable,0,Black|Blue|Red,China,Large|Medium|Small,"a:3:{s:8:""pa_color"";a:6:{s:4:""name"";s:8:""pa_color"";s:5:""value"";s:0:"""";s:8:""position"";i:0;s:10:""is_visible"";i:1;s:12:""is_variation"";i:1;s:11:""is_taxonomy"";i:1;}s:7:""pa_size"";a:6:{s:4:""name"";s:7:""pa_size"";s:5:""value"";s:0:"""";s:8:""position"";i:1;s:10:""is_visible"";i:1;s:12:""is_variation"";i:1;s:11:""is_taxonomy"";i:1;}s:22:""pa_manufacturing-place"";a:6:{s:4:""name"";s:22:""pa_manufacturing-place"";s:5:""value"";s:0:"""";s:8:""position"";i:2;s:10:""is_visible"";i:1;s:12:""is_variation"";i:0;s:11:""is_taxonomy"";i:1;}}",,,,"a:1:{s:17:""set_5c59889fc63be"";a:9:{s:15:""conditions_type"";s:3:""all"";s:10:""conditions"";a:1:{i:1;a:2:{s:4:""type"";s:8:""apply_to"";s:4:""args"";a:1:{s:10:""applies_to"";s:8:""everyone"";}}}s:9:""collector"";a:1:{s:4:""type"";s:7:""product"";}s:15:""variation_rules"";a:1:{s:4:""args"";a:1:{s:4:""type"";s:7:""product"";}}s:4:""mode"";s:10:""continuous"";s:9:""date_from"";s:0:"""";s:7:""date_to"";s:0:"""";s:5:""rules"";a:4:{i:1;a:4:{s:4:""from"";s:4:""1000"";s:2:""to"";s:4:""2999"";s:4:""type"";s:11:""fixed_price"";s:6:""amount"";s:4:""4.17"";}i:2;a:4:{s:4:""from"";s:1:""0"";s:2:""to"";s:3:""999"";s:4:""type"";s:11:""fixed_price"";s:6:""amount"";s:1:""2"";}i:3;a:4:{s:4:""from"";s:4:""3000"";s:2:""to"";s:4:""4999"";s:4:""type"";s:11:""fixed_price"";s:6:""amount"";s:3:""3.2"";}i:4;a:4:{s:4:""from"";s:4:""5000"";s:2:""to"";s:4:""9999"";s:4:""type"";s:11:""fixed_price"";s:6:""amount"";s:4:""2.95"";}}s:10:""blockrules"";a:1:{i:1;a:5:{s:4:""from"";s:0:"""";s:6:""adjust"";s:0:"""";s:4:""type"";s:16:""fixed_adjustment"";s:6:""amount"";s:0:"""";s:9:""repeating"";s:2:""no"";}}}}",instock,,,0,Color,Black|Blue|Red,yes,yes,yes,"Manufacturing place",China,no,yes,yes,Size,Large|Medium|Small,yes,yes,yes,,https://dev.allo-sourcing.com/wp-content/uploads/2019/02/bag.jpg|https://dev.allo-sourcing.com/wp-content/uploads/2019/02/GBA43.jpg|https://dev.allo-sourcing.com/wp-content/uploads/2019/02/GBA45.jpg|https://dev.allo-sourcing.com/wp-content/uploads/2019/02/GBA46.jpg|https://dev.allo-sourcing.com/wp-content/uploads/2019/02/GBA47.jpg|https://dev.allo-sourcing.com/wp-content/uploads/2019/02/GBA49_2.png,https://dev.allo-sourcing.com/wp-content/uploads/2019/02/bag.jpg,Bags>Bags>Drawstrings,25,"ZHEJIANG HAIZHOU UMBRELLA CO.,LTD",,"7,8,9,10,11,12"
130,GPA01-1,fr,"Foldable backpack (Copy) FR","Sed ut perspiciatis unde omnis iste natus error sit voluptatem accusantium doloremque laudantium, totam rem aperiam, eaque ipsa quae ab illo inventore veritatis et quasi architecto beatae vitae dicta sunt explicabo.","Lorem ipsum dolor sit amet, consectetur adipiscing elit, sed do eiusmod tempor incididunt ut labore et dolore magna aliqua. Ut enim ad minim veniam, quis nostrud exercitation ullamco laboris nisi ut aliquip ex ea commodo consequat. Duis aute irure dolor in reprehenderit in voluptate velit esse cillum dolore eu fugiat nulla pariatur. Excepteur sint occaecat cupidatat non proident, sunt in culpa qui officia deserunt mollit anim id est laborum.","Material: polyester 190T;
Whooden handle;
Fiberglass ribs; Dim: 23"" x 8 panels;
Auto open",66019990,"Parapluies, ombrelles et parasols, y.c. les parapluies-cannes (à l'excl. des par~~FRA","0,38",field_5c59851abcea5,85,30,26,China,variable,0,Black|Blue|Red,China,Large|Medium|Small,"a:3:{s:8:""pa_color"";a:6:{s:4:""name"";s:8:""pa_color"";s:5:""value"";s:0:"""";s:8:""position"";i:0;s:10:""is_visible"";i:1;s:12:""is_variation"";i:1;s:11:""is_taxonomy"";i:1;}s:7:""pa_size"";a:6:{s:4:""name"";s:7:""pa_size"";s:5:""value"";s:0:"""";s:8:""position"";i:1;s:10:""is_visible"";i:1;s:12:""is_variation"";i:1;s:11:""is_taxonomy"";i:1;}s:22:""pa_manufacturing-place"";a:6:{s:4:""name"";s:22:""pa_manufacturing-place"";s:5:""value"";s:0:"""";s:8:""position"";i:2;s:10:""is_visible"";i:1;s:12:""is_variation"";i:0;s:11:""is_taxonomy"";i:1;}}",,,,"a:1:{s:17:""set_5c59889fc63be"";a:9:{s:15:""conditions_type"";s:3:""all"";s:10:""conditions"";a:1:{i:1;a:2:{s:4:""type"";s:8:""apply_to"";s:4:""args"";a:1:{s:10:""applies_to"";s:8:""everyone"";}}}s:9:""collector"";a:1:{s:4:""type"";s:7:""product"";}s:15:""variation_rules"";a:1:{s:4:""args"";a:1:{s:4:""type"";s:7:""product"";}}s:4:""mode"";s:10:""continuous"";s:9:""date_from"";s:0:"""";s:7:""date_to"";s:0:"""";s:5:""rules"";a:4:{i:1;a:4:{s:4:""from"";s:4:""1000"";s:2:""to"";s:4:""2999"";s:4:""type"";s:11:""fixed_price"";s:6:""amount"";s:4:""4.17"";}i:2;a:4:{s:4:""from"";s:1:""0"";s:2:""to"";s:3:""999"";s:4:""type"";s:11:""fixed_price"";s:6:""amount"";s:1:""2"";}i:3;a:4:{s:4:""from"";s:4:""3000"";s:2:""to"";s:4:""4999"";s:4:""type"";s:11:""fixed_price"";s:6:""amount"";s:3:""3.2"";}i:4;a:4:{s:4:""from"";s:4:""5000"";s:2:""to"";s:4:""9999"";s:4:""type"";s:11:""fixed_price"";s:6:""amount"";s:4:""2.95"";}}s:10:""blockrules"";a:1:{i:1;a:5:{s:4:""from"";s:0:"""";s:6:""adjust"";s:0:"""";s:4:""type"";s:16:""fixed_adjustment"";s:6:""amount"";s:0:"""";s:9:""repeating"";s:2:""no"";}}}}",outofstock,,,0,Color,Black|Blue|Red,yes,yes,yes,"Manufacturing place",China,no,yes,yes,Size,Large|Medium|Small,yes,yes,yes,,https://dev.allo-sourcing.com/wp-content/uploads/2019/02/bag.jpg|https://dev.allo-sourcing.com/wp-content/uploads/2019/02/bag.jpg|https://dev.allo-sourcing.com/wp-content/uploads/2019/02/GBA43.jpg|https://dev.allo-sourcing.com/wp-content/uploads/2019/02/GBA45.jpg|https://dev.allo-sourcing.com/wp-content/uploads/2019/02/GBA46.jpg|https://dev.allo-sourcing.com/wp-content/uploads/2019/02/GBA47.jpg|https://dev.allo-sourcing.com/wp-content/uploads/2019/02/GBA49_2.png,https://dev.allo-sourcing.com/wp-content/uploads/2019/02/bag.jpg,Bags>Bags>Drawstrings,25,"ZHEJIANG HAIZHOU UMBRELLA CO.,LTD",,"7,8,9,10,11,12"
131,GPA01-1-1,en,"Foldable backpack TEST","Sed ut perspiciatis unde omnis iste natus error sit voluptatem accusantium doloremque laudantium, totam rem aperiam, eaque ipsa quae ab illo inventore veritatis et quasi architecto beatae vitae dicta sunt explicabo.","Lorem ipsum dolor sit amet, consectetur adipiscing elit, sed do eiusmod tempor incididunt ut labore et dolore magna aliqua. Ut enim ad minim veniam, quis nostrud exercitation ullamco laboris nisi ut aliquip ex ea commodo consequat. Duis aute irure dolor in reprehenderit in voluptate velit esse cillum dolore eu fugiat nulla pariatur. Excepteur sint occaecat cupidatat non proident, sunt in culpa qui officia deserunt mollit anim id est laborum.","Material: polyester 190T;
Whooden handle;
Fiberglass ribs; Dim: 23"" x 8 panels;
Auto open",66019990,"Parapluies, ombrelles et parasols, y.c. les parapluies-cannes (à l'excl. des par~~FRA","0,38",field_5c59851abcea5,85,30,26,China,variable,0,Black|Blue|Red,China,Large|Medium|Small,"a:3:{s:8:""pa_color"";a:6:{s:4:""name"";s:8:""pa_color"";s:5:""value"";s:0:"""";s:8:""position"";i:0;s:10:""is_visible"";i:1;s:12:""is_variation"";i:1;s:11:""is_taxonomy"";i:1;}s:7:""pa_size"";a:6:{s:4:""name"";s:7:""pa_size"";s:5:""value"";s:0:"""";s:8:""position"";i:1;s:10:""is_visible"";i:1;s:12:""is_variation"";i:1;s:11:""is_taxonomy"";i:1;}s:22:""pa_manufacturing-place"";a:6:{s:4:""name"";s:22:""pa_manufacturing-place"";s:5:""value"";s:0:"""";s:8:""position"";i:2;s:10:""is_visible"";i:1;s:12:""is_variation"";i:0;s:11:""is_taxonomy"";i:1;}}",100,,,"a:1:{s:17:""set_5c59889fc63be"";a:9:{s:15:""conditions_type"";s:3:""all"";s:10:""conditions"";a:1:{i:1;a:2:{s:4:""type"";s:8:""apply_to"";s:4:""args"";a:1:{s:10:""applies_to"";s:8:""everyone"";}}}s:9:""collector"";a:1:{s:4:""type"";s:7:""product"";}s:15:""variation_rules"";a:1:{s:4:""args"";a:1:{s:4:""type"";s:7:""product"";}}s:4:""mode"";s:10:""continuous"";s:9:""date_from"";s:0:"""";s:7:""date_to"";s:0:"""";s:5:""rules"";a:4:{i:1;a:4:{s:4:""from"";s:4:""1000"";s:2:""to"";s:4:""2999"";s:4:""type"";s:11:""fixed_price"";s:6:""amount"";s:4:""4.17"";}i:2;a:4:{s:4:""from"";s:1:""0"";s:2:""to"";s:3:""999"";s:4:""type"";s:11:""fixed_price"";s:6:""amount"";s:1:""2"";}i:3;a:4:{s:4:""from"";s:4:""3000"";s:2:""to"";s:4:""4999"";s:4:""type"";s:11:""fixed_price"";s:6:""amount"";s:3:""3.2"";}i:4;a:4:{s:4:""from"";s:4:""5000"";s:2:""to"";s:4:""9999"";s:4:""type"";s:11:""fixed_price"";s:6:""amount"";s:4:""2.95"";}}s:10:""blockrules"";a:1:{i:1;a:5:{s:4:""from"";s:0:"""";s:6:""adjust"";s:0:"""";s:4:""type"";s:16:""fixed_adjustment"";s:6:""amount"";s:0:"""";s:9:""repeating"";s:2:""no"";}}}}",instock,,,0,Color,Black|Blue|Red,yes,yes,yes,"Manufacturing place",China,no,yes,yes,Size,Large|Medium|Small,yes,yes,yes,,https://dev.allo-sourcing.com/wp-content/uploads/2019/02/bag.jpg|https://dev.allo-sourcing.com/wp-content/uploads/2019/02/GBA43.jpg|https://dev.allo-sourcing.com/wp-content/uploads/2019/02/GBA45.jpg|https://dev.allo-sourcing.com/wp-content/uploads/2019/02/GBA46.jpg|https://dev.allo-sourcing.com/wp-content/uploads/2019/02/GBA47.jpg|https://dev.allo-sourcing.com/wp-content/uploads/2019/02/GBA49_2.png,https://dev.allo-sourcing.com/wp-content/uploads/2019/02/bag.jpg,Bags>Bags>Drawstrings,25,"ZHEJIANG HAIZHOU UMBRELLA CO.,LTD",,"7,8,9,10,11,12"
141,,fr,"Foldable backpack TEST FR",,"Lorem ipsum dolor sit amet, consectetur adipiscing elit, sed do eiusmod tempor incididunt ut labore et dolore magna aliqua. Ut enim ad minim veniam, quis nostrud exercitation ullamco laboris nisi ut aliquip ex ea commodo consequat. Duis aute irure dolor in reprehenderit in voluptate velit esse cillum dolore eu fugiat nulla pariatur. Excepteur sint occaecat cupidatat non proident, sunt in culpa qui officia deserunt mollit anim id est laborum.","Material: polyester 190T;
Whooden handle;
Fiberglass ribs; Dim: 23"" x 8 panels;
Auto open",66019990,"Parapluies, ombrelles et parasols, y.c. les parapluies-cannes (à l'excl. des par~~FRA","0,38",field_5c59851abcea5,85,30,26,China,variable,0,Black|Blue|Red,China,Large|Medium|Small,"a:3:{s:8:""pa_color"";a:6:{s:4:""name"";s:8:""pa_color"";s:5:""value"";s:0:"""";s:8:""position"";i:0;s:10:""is_visible"";i:1;s:12:""is_variation"";i:1;s:11:""is_taxonomy"";i:1;}s:22:""pa_manufacturing-place"";a:6:{s:4:""name"";s:22:""pa_manufacturing-place"";s:5:""value"";s:0:"""";s:8:""position"";i:1;s:10:""is_visible"";i:1;s:12:""is_variation"";i:0;s:11:""is_taxonomy"";i:1;}s:7:""pa_size"";a:6:{s:4:""name"";s:7:""pa_size"";s:5:""value"";s:0:"""";s:8:""position"";i:2;s:10:""is_visible"";i:1;s:12:""is_variation"";i:1;s:11:""is_taxonomy"";i:1;}}",100,,,,instock,,,0,Color,Black|Blue|Red,yes,yes,yes,"Manufacturing place",China,no,yes,yes,Size,Large|Medium|Small,yes,yes,yes,,https://dev.allo-sourcing.com/wp-content/uploads/2019/02/bag.jpg,https://dev.allo-sourcing.com/wp-content/uploads/2019/02/bag.jpg,Bags>Bags>Drawstrings,25,"ZHEJIANG HAIZHOU UMBRELLA CO.,LTD",,
